1.62 12.46 6.08 13 4.92 1
0.69 9.08 4.08 7.6 3.62 1
0.69 8.38 3.08 8.3 3 1
0.85 9.38 4 9 3.92 0
0.77 8 4 9.6 4.38 0
1.38 9.92 4.46 14 4.54 0
1.15 11.69 5.54 9.9 4.23 0
0.69 7.77 3.46 8.9 5.54 1
0.85 7.46 3.54 11.3 4.31 1
1.08 9.92 4.46 10.9 3.23 0
0.38 8.23 3.54 4.7 4.54 1
0.54 8 4.54 6.7 3.69 0
0.85 8.08 3.69 10.5 4.77 0
