1.21 10.21 4.29 11.9 5.43 1
1.14 8.93 4.21 12.8 3.86 0
1.64 11.07 5.5 14.8 5.86 2
1.86 11.86 5.93 15.7 6.14 2
1.43 11.79 5.36 12.1 7.07 2
1.57 10.57 5.14 14.9 6.86 2
1.21 10.21 5.07 11.9 4.14 1
1.93 11.79 5.57 16.4 6 3
1.5 11.71 5.64 12.8 7.93 4
1.29 10.36 5.14 12.4 6.29 3
1.64 10.71 6.21 15.3 6.36 2
1.07 11.14 4.71 9.6 6 1
1.57 11.86 5.79 13.3 6.14 3
1.64 10.43 4.79 15.8 6.29 2
