1 9.93 5 10.1 7.14 0
1.43 11.79 5.36 12.1 7.07 1
1.29 9.14 3.86 14.1 4.64 1
1.21 10.21 4.29 11.9 5.43 0
1.57 10.57 5.14 14.9 6.86 2
1.36 10 5.43 13.6 5.64 1
1.79 9.5 4.86 18.8 6 1
1.14 8.93 4.21 12.8 3.86 2
1.64 11.07 5.5 14.8 5.86 0
1.64 10.43 4.79 15.8 6.29 0
1.86 11.86 5.93 15.7 6.14 5
1.21 10.21 5.07 11.9 4.14 1
1.93 11.79 5.57 16.4 6 2
1.36 10.57 4.79 12.8 4 2
